{
  "project_info": {
    "project_number": "1049432196053",
    "firebase_url": "https://sellanytime-83a60.firebaseio.com",
    "project_id": "sellanytime-83a60",
    "storage_bucket": "sellanytime-83a60.appspot.com"
  },
  "client": [
    {
      "client_info": {
        "mobilesdk_app_id": "1:1049432196053:android:a1e6ce6af20e8e45",
        "android_client_info": {
          "package_name": "com.example.unown.sellanytime"
        }
      },
      "oauth_client": [
        {
          "client_id": "1049432196053-fpmpar9pmm3lar8m914fatr2h5au8hee.apps.googleusercontent.com",
          "client_type": 3
        }
      ],
      "api_key": [
        {
          "current_key": "AIzaSyBzbnOoqibdZKI-1LCv3pVJN6VRUvBqR1E"
        }
      ],
      "services": {
        "analytics_service": {
          "status": 1
        },
        "appinvite_service": {
          "status": 1,
          "other_platform_oauth_client": []
        },
        "ads_service": {
          "status": 2
        }
      }
    }
  ],
  "configuration_version": "1"
}